<?xml version="1.0" encoding="UTF-8"?>
<svg width="20px" height="20px" viewBox="0 0 20 20" version="1.1" xmlns="http://www.w3.org/2000/svg" xmlns:xlink="http://www.w3.org/1999/xlink">
    <!-- Generator: Sketch 63.1 (92452) - https://sketch.com -->
    <title>icon/20/inactive/arrow--last</title>
    <desc>Created with Sketch.</desc>
    <g id="icon/20/inactive/arrow--last" stroke="none" stroke-width="1" fill="none" fill-rule="evenodd" stroke-linecap="round" stroke-linejoin="round">
        <g id="Group" transform="translate(4.500000, 1.000000)" stroke="#AAAAAA">
            <polyline id="Path-2" points="0 7.95181013e-16 10 8.99306043 0 18"></polyline>
            <line x1="11" y1="-1.2490009e-16" x2="11" y2="18" id="Line" transform="translate(11.000000, 9.000000) scale(-1, 1) translate(-11.000000, -9.000000) "></line>
        </g>
    </g>
</svg>