<?xml version="1.0" encoding="UTF-8"?>
<svg width="20px" height="20px" viewBox="0 0 20 20" version="1.1" xmlns="http://www.w3.org/2000/svg" xmlns:xlink="http://www.w3.org/1999/xlink">
    <!-- Generator: Sketch 63.1 (92452) - https://sketch.com -->
    <title>icon/20/inactive/arrow--left</title>
    <desc>Created with Sketch.</desc>
    <g id="icon/20/inactive/arrow--left" stroke="none" stroke-width="1" fill="none" fill-rule="evenodd" stroke-linecap="round" stroke-linejoin="round">
        <polyline id="Path-2" stroke="#AAAAAA" transform="translate(10.000000, 10.000000) scale(-1, 1) translate(-10.000000, -10.000000) " points="5 1 15 9.99306043 5 19"></polyline>
    </g>
</svg>