<?xml version="1.0" encoding="utf-8"?>
<!-- Generator: Adobe Illustrator 24.0.1, SVG Export Plug-In . SVG Version: 6.00 Build 0)  -->
<svg version="1.1" id="圖層_1" xmlns="http://www.w3.org/2000/svg" xmlns:xlink="http://www.w3.org/1999/xlink" x="0px" y="0px"
	 viewBox="0 0 20 20" style="enable-background:new 0 0 20 20;" xml:space="preserve">
<style type="text/css">
	.st0{fill:none;stroke:#FF6600;stroke-linecap:round;stroke-linejoin:round;}
</style>
<title>icon/20/dakr/arrow--left</title>
<desc>Created with Sketch.</desc>
<g id="icon_x2F_20_x2F_dakr_x2F_arrow--left">
	<g id="element_x2F_icon_x2F_20_x2F_light_x2F_arrow--right" transform="translate(4.000000, 0.000000)">
		<polyline id="Path-2" class="st0" points="11,1 1,10 11,19 		"/>
	</g>
</g>
</svg>
